<?xml version="1.0" encoding="UTF-8"?>
<kml xmlns="http://earth.google.com/kml/2.2">
<Document>
<name>Paths</name>
<description>Examples of paths. Note that the tessellate tag is by default
set to 0. If you want to create tessellated lines, they must be authored
(or edited) directly in KML.</description>
<Style id="yellowLineGreenPoly">
<LineStyle>
<color>7f00ffff</color>
<width>4</width>
</LineStyle>
<PolyStyle>
<color>7f00ff00</color>
</PolyStyle>
</Style>
<Placemark>
<name>Absolute Extruded</name>
<description>Transparent green wall with yellow outlines</description>
<styleUrl>#yellowLineGreenPoly</styleUrl>
<LineString>
<extrude>0</extrude>
<tessellate>0</tessellate>
<altitudeMode>absolute</altitudeMode>
<coordinates>
 16.030450,69.295930,37.000000
 16.030650,69.295900,42.000000
 16.030780,69.295890,48.000000
 16.030870,69.295890,53.000000
 16.030970,69.295900,58.000000
</coordinates>
</LineString>
</Placemark>
</Document>
</kml>
